<?xml version="1.0" encoding="utf-8"?>
<!-- Generator: Adobe Illustrator 27.0.0, SVG Export Plug-In . SVG Version: 6.00 Build 0)  -->
<svg version="1.1" id="Layer_1" xmlns="http://www.w3.org/2000/svg" xmlns:xlink="http://www.w3.org/1999/xlink" x="0px" y="0px"
	 viewBox="0 0 200 200" style="enable-background:new 0 0 200 200;" xml:space="preserve">
<style type="text/css">
	.st0{fill:#FFFFFF;}
</style>
<g>
	<g>
		<path class="st0" d="M90.75,171.96c-1.93,0-3.83-0.1-5.69-0.29v0.29c0,3.08-0.43,6.05-1.24,8.87c2.28,0.25,4.59,0.38,6.93,0.38
			c6,0,11.81-0.82,17.32-2.37c-1.98-2.52-3.65-5.3-4.94-8.27h-0.01C99.14,171.48,95,171.96,90.75,171.96z M26.2,116.66
			c0,10.54,2.54,20.49,7.04,29.29c2.46-1.84,5.2-3.34,8.13-4.42c-3.78-7.48-5.92-15.93-5.92-24.87c0-19.31,9.95-36.34,24.98-46.23
			c-2.13-2.25-4-4.73-5.58-7.39C37.58,74.63,26.2,94.34,26.2,116.66z M121.06,70.44c15.04,9.89,24.98,26.92,24.98,46.23
			c0,0.35,0,0.71-0.01,1.05c3.2,0.66,6.26,1.72,9.12,3.14c0.09-1.39,0.13-2.78,0.13-4.19c0-22.32-11.39-42.03-28.65-53.62
			C125.06,65.71,123.19,68.19,121.06,70.44z M145.77,122.24c3.15,0.71,6.14,1.88,8.9,3.41c0.09-0.59,0.16-1.19,0.23-1.79
			c-2.79-1.49-5.8-2.62-8.98-3.31C145.87,121.13,145.82,121.69,145.77,122.24z M105.87,169.86c1.34,2.93,3.05,5.66,5.1,8.11
			c0.57-0.19,1.14-0.38,1.7-0.59c-2.08-2.41-3.83-5.1-5.16-8.01h-0.01C106.95,169.54,106.41,169.7,105.87,169.86z"/>
	</g>
	<g>
		<path class="st0" d="M49,41.75c0,7.77,2.14,15.05,5.85,21.29c1.58,2.67,3.46,5.15,5.58,7.39c7.61,8.05,18.38,13.08,30.32,13.08
			s22.7-5.03,30.32-13.08c2.13-2.25,4-4.73,5.58-7.39c3.72-6.24,5.85-13.52,5.85-21.29C132.5,18.74,113.77,0,90.75,0
			S49,18.74,49,41.75z M124.09,41.75c0,6.24-1.72,12.08-4.71,17.07c-1.64,2.74-3.66,5.23-6,7.39c-5.95,5.51-13.91,8.89-22.64,8.89
			s-16.69-3.38-22.64-8.89c-2.34-2.16-4.36-4.65-6-7.39c-2.99-4.99-4.71-10.83-4.71-17.07c0-18.38,14.96-33.34,33.34-33.34
			S124.09,23.37,124.09,41.75z"/>
	</g>
	<g>
		<path class="st0" d="M52.61,146.66c13.45,0,24.46,10.51,25.24,23.77c0.03,0.5,0.05,1.01,0.05,1.52c0,2.69-0.42,5.28-1.2,7.71
			c-3.26,10.2-12.82,17.58-24.09,17.58c-13.98,0-25.3-11.33-25.3-25.29c0-8.02,3.73-15.17,9.56-19.8c2.41-1.93,5.19-3.42,8.21-4.36
			C47.46,147.07,49.99,146.66,52.61,146.66z"/>
	</g>
	<g>
		<g>
			<path class="st0" d="M52.61,200c-15.47,0-28.05-12.58-28.05-28.04c0-8.6,3.86-16.6,10.6-21.95c2.71-2.17,5.77-3.8,9.1-4.84
				c2.72-0.84,5.53-1.26,8.35-1.26c14.82,0,27.11,11.58,27.99,26.35c0.04,0.55,0.06,1.12,0.06,1.69c0,2.92-0.45,5.8-1.33,8.55
				C75.59,192.17,64.86,200,52.61,200z M52.61,145.89c-2.63,0-5.24,0.39-7.77,1.17c-3.09,0.96-5.93,2.48-8.45,4.5
				c-6.27,4.97-9.86,12.41-9.86,20.4c0,14.37,11.7,26.07,26.08,26.07c11.38,0,21.36-7.28,24.83-18.12c0.82-2.56,1.24-5.23,1.24-7.95
				c0-0.53-0.02-1.05-0.05-1.56C77.82,156.65,66.39,145.89,52.61,145.89z"/>
		</g>
	</g>
	<g>
		<path class="st0" d="M102.72,155.24c0,5.21,1.13,10.15,3.15,14.62c1.34,2.93,3.05,5.66,5.1,8.11
			c6.52,7.82,16.33,12.81,27.29,12.81c19.58,0,35.53-15.94,35.53-35.53c0-13.58-7.66-25.4-18.89-31.37
			c-2.79-1.49-5.8-2.62-8.98-3.31c-2.46-0.55-5.03-0.83-7.66-0.83C118.67,119.72,102.72,135.66,102.72,155.24z M154.67,125.66
			c10.39,5.78,17.43,16.88,17.43,29.58c0,18.66-15.19,33.85-33.85,33.85c-10.21,0-19.37-4.55-25.59-11.71
			c-2.08-2.41-3.83-5.1-5.16-8.01h-0.01c-1.98-4.3-3.09-9.08-3.09-14.12c0-18.66,15.19-33.84,33.85-33.84c2.58,0,5.1,0.29,7.52,0.84
			C148.92,122.96,151.91,124.12,154.67,125.66z"/>
	</g>
	<g>
		<path class="st0" d="M102.72,155.24c0,5.21,1.13,10.15,3.15,14.62c1.34,2.93,3.05,5.66,5.1,8.11
			c6.52,7.82,16.33,12.81,27.29,12.81c19.58,0,35.53-15.94,35.53-35.53c0-13.58-7.66-25.4-18.89-31.37
			c-2.79-1.49-5.8-2.62-8.98-3.31c-2.46-0.55-5.03-0.83-7.66-0.83C118.67,119.72,102.72,135.66,102.72,155.24z M154.67,125.66
			c10.39,5.78,17.43,16.88,17.43,29.58c0,18.66-15.19,33.85-33.85,33.85c-10.21,0-19.37-4.55-25.59-11.71
			c-2.08-2.41-3.83-5.1-5.16-8.01h-0.01c-1.98-4.3-3.09-9.08-3.09-14.12c0-18.66,15.19-33.84,33.85-33.84c2.58,0,5.1,0.29,7.52,0.84
			C148.92,122.96,151.91,124.12,154.67,125.66z"/>
		<path class="st0" d="M154.21,128.45c-2.69-1.61-5.64-2.82-8.78-3.56c-2.31-0.54-4.71-0.83-7.19-0.83
			c-17.22,0-31.18,13.96-31.18,31.18c0,4.73,1.06,9.23,2.95,13.25c1.35,2.89,3.15,5.55,5.29,7.87c5.7,6.19,13.87,10.07,22.94,10.07
			c17.23,0,31.19-13.97,31.19-31.19C169.43,143.86,163.33,133.89,154.21,128.45z M138.25,138.6c2.59,0,4.69,2.1,4.69,4.69
			c0,2.59-2.1,4.69-4.69,4.69c-2.58,0-4.68-2.1-4.68-4.69C133.56,140.7,135.66,138.6,138.25,138.6z M152.97,166.43
			c0,1.92-0.37,3.77-1.06,5.45h-7.72c1.32-1.44,2.13-3.35,2.13-5.45c0-4.45-3.62-8.08-8.08-8.08c-4.45,0-8.07,3.63-8.07,8.08
			c0,2.1,0.81,4.01,2.13,5.45h-7.73c-0.67-1.69-1.05-3.53-1.05-5.45c0-4.86,2.37-9.18,6.02-11.85c-3.61-2.15-6.35-5.59-7.6-9.69
			h7.17c1.77,3.24,5.2,5.43,9.13,5.43c3.95,0,7.38-2.2,9.14-5.43h7.16c-1.24,4.09-3.98,7.54-7.59,9.69
			C150.6,157.25,152.97,161.57,152.97,166.43z"/>
	</g>
</g>
<g>
</g>
<g>
</g>
<g>
</g>
<g>
</g>
<g>
</g>
<g>
</g>
</svg>
