<?xml version="1.0" encoding="UTF-8"?>
<!DOCTYPE svg PUBLIC "-//W3C//DTD SVG 1.1//EN" "http://www.w3.org/Graphics/SVG/1.1/DTD/svg11.dtd">
<!-- Creator: CorelDRAW X7 -->
<svg xmlns="http://www.w3.org/2000/svg" xml:space="preserve" width="210mm" height="297mm" version="1.1" style="shape-rendering:geometricPrecision; text-rendering:geometricPrecision; image-rendering:optimizeQuality; fill-rule:evenodd; clip-rule:evenodd"
viewBox="0 0 21000 29700"
 xmlns:xlink="http://www.w3.org/1999/xlink">
 <defs>
  <style type="text/css">
   <![CDATA[
    .fil0 {fill:#FEFEFE}
   ]]>
  </style>
 </defs>
 <g id="Layer_x0020_1">
  <metadata id="CorelCorpID_0Corel-Layer"/>
  <g id="_2079018315072">
  </g>
  <g id="_2079018315264">
  </g>
  <g id="_2079018314272">
  </g>
  <g id="_2079018314464">
  </g>
  <g id="_2079018313024">
  </g>
  <g id="_2079018313088">
  </g>
  <g id="_2079018313408">
   <path class="fil0" d="M4534 7289c792,-20 1811,287 2411,565 1334,619 2393,1702 2833,3121 254,815 246,1773 -16,2586 -728,2252 -3002,3601 -5315,3637 -255,4 -2831,-29 -2972,-2l5 6677 1008 -6c55,-354 76,-577 175,-903 520,-1706 2216,-3311 4169,-3304 1874,6 3101,1204 3794,2615 348,708 333,900 540,1567 140,37 3912,13 4160,13 272,0 4004,22 4166,-6 27,-153 7,-5246 7,-5820 0,-181 22,-696 -13,-838l-1094 6c-60,668 -44,930 -295,1584 -179,467 -417,849 -691,1171 -1775,2092 -4749,1443 -5804,-1037 -163,-384 -346,-1033 -339,-1512 -34,-43 -26,-115 -26,-175l0 -540c-1,-1091 11,-10709 -15,-10835l-6894 0c-24,122 -11,1339 18,1398 48,23 29,6 83,12l105 26z"/>
   <path class="fil0" d="M20652 25089l-20378 -1c-37,-119 -13,-4853 -13,-5110l0 -12793c0,-842 -27,-1729 2,-2566l20469 8 0 20381c0,79 -1,81 -80,81zm-20479 641l21188 1c39,-119 13,-4865 13,-5422l-2 -16340 -21729 5 -25 0 6 21755 549 1z"/>
   <path class="fil0" d="M4534 7289l-105 -26c-54,-6 -35,11 -83,-12 -29,-59 -42,-1276 -18,-1398l6894 0c26,126 14,9744 15,10835l0 540c0,60 -8,132 26,175l-16 -11575 -6938 2c-23,126 -12,1380 15,1443 48,23 141,16 210,16z"/>
   <path class="fil0" d="M11166 23842c31,43 -45,31 52,37l8298 -6c29,-209 2,-5592 7,-6488 1,-173 15,-170 -37,-194 35,142 13,657 13,838 0,574 20,5667 -7,5820 -162,28 -3894,6 -4166,6 -248,0 -4020,24 -4160,-13z"/>
  </g>
 </g>
</svg>
