<?xml version="1.0" encoding="utf-8"?>
<!-- Generator: Adobe Illustrator 27.0.0, SVG Export Plug-In . SVG Version: 6.00 Build 0)  -->
<svg version="1.1" id="Layer_1" xmlns="http://www.w3.org/2000/svg" xmlns:xlink="http://www.w3.org/1999/xlink" x="0px" y="0px"
	 viewBox="0 0 200 200" style="enable-background:new 0 0 200 200;" xml:space="preserve">
<style type="text/css">
	.st0{fill:#FFFFFF;}
</style>
<g>
	<g>
		<path class="st0" d="M161.8,195.11H38.2L0,77.55L100,4.89l100,72.65L161.8,195.11z M43.1,188.35H156.9l35.17-108.23L100,13.24
			L7.94,80.13L43.1,188.35z"/>
	</g>
	<g>
		<path class="st0" d="M100,21.59L23.39,77.26c0.08,0.04,0.15,0.08,0.23,0.12c25.09,12.29,50.2,24.57,75.28,36.89
			c0.78,0.39,1.34,0.26,2.03-0.08c13.33-6.54,26.65-13.06,39.98-19.6c0.41-0.2,0.81-0.36,1.4-0.63v58.06
			c2.39-1.78,4.63-3.39,6.79-5.09c0.57-0.45,1.34-0.45,1.9,0c2.17,1.69,4.42,3.31,6.85,5.13v-13.44c0-16.98,0.01-33.97-0.01-50.95
			c-0.01-0.97,0.3-1.46,1.16-1.85c2.36-1.07,4.69-2.24,7.01-3.39c3.48-1.7,6.97-3.42,10.59-5.19L100,21.59z M102.57,76.98
			c-0.84,0.15-1.7,0.18-2.55,0.27c-0.76-0.08-1.49-0.12-2.22-0.22c-2.49-0.32-3.55-1.81-3.05-4.25c0.51-2.53,2.89-4.4,5.43-4.3
			c2.7,0.12,4.9,2.23,5.13,4.92C105.48,75.37,104.54,76.64,102.57,76.98z"/>
		<path class="st0" d="M58.02,99.16c0.59,0.26,1.02,0.45,1.43,0.65c13.1,6.3,26.2,12.6,39.28,18.93c0.87,0.42,1.53,0.43,2.41,0.01
			c12.19-5.9,24.4-11.75,36.6-17.62c0.42-0.2,0.84-0.38,1.4-0.64c0,0.61,0,1.04,0,1.46c0,9.44-0.02,18.89,0.02,28.33
			c0,0.97-0.3,1.61-0.99,2.23c-4.01,3.56-8.81,5.62-13.84,7.16c-9.81,3-19.86,3.82-30.06,3.23c-8-0.46-15.81-1.83-23.28-4.83
			c-3.11-1.25-6.05-2.8-8.62-4.98c-2.89-2.45-4.49-5.41-4.4-9.37c0.16-7.66,0.05-15.34,0.05-23
			C58.02,100.25,58.02,99.79,58.02,99.16z"/>
	</g>
	<g>
		<path class="st0" d="M99.98,166.94v9.47c-11.85-5.64-25.56-8.86-40.16-8.86v-8.37C74.22,159.18,87.85,161.97,99.98,166.94z"/>
		<path class="st0" d="M99.98,166.94v9.47c11.85-5.64,25.56-8.86,40.16-8.86v-8.37C125.73,159.18,112.1,161.97,99.98,166.94z"/>
		<path class="st0" d="M100.93,177.76h-1.91c-1.5,0-2.72-1.22-2.72-2.72v-4.51c0-1.5,1.22-2.72,2.72-2.72h1.91
			c1.5,0,2.72,1.22,2.72,2.72v4.51C103.66,176.54,102.44,177.76,100.93,177.76z"/>
	</g>
	<g>
		<path class="st0" d="M140.14,153.71v4.5c-14.61,0-28.31,3.48-40.17,9.59c-11.85-6.1-25.55-9.59-40.15-9.59v-4.5
			c14.56,1.34,27.94,5.89,39.32,12.79l0.84,0.53l0.82-0.53C112.18,159.59,125.57,155.04,140.14,153.71z"/>
	</g>
</g>
<g>
</g>
<g>
</g>
<g>
</g>
<g>
</g>
<g>
</g>
<g>
</g>
</svg>
