<?xml version="1.0" encoding="utf-8"?>
<!-- Generator: Adobe Illustrator 27.0.0, SVG Export Plug-In . SVG Version: 6.00 Build 0)  -->
<svg version="1.1" id="Layer_1" xmlns="http://www.w3.org/2000/svg" xmlns:xlink="http://www.w3.org/1999/xlink" x="0px" y="0px"
	 viewBox="0 0 200 200" style="enable-background:new 0 0 200 200;" xml:space="preserve">
<style type="text/css">
	.st0{fill:#FFFFFF;}
</style>
<g>
	<g>
		<path class="st0" d="M154.36,110.52c-8.16-7.83-17.94-12.56-28.85-15.15c-0.23-0.06-0.43-0.08-0.58-0.04l-19.36,49.47L86.01,94.84
			c-0.12-0.02-0.27-0.02-0.47,0.02c-11.84,2.38-22.42,7.31-31.22,15.71c-0.52,0.48-0.99,1.4-0.97,2.07
			c0.17,4.86,0.29,9.75,0.76,14.59c0.35,3.6,1.24,7.17,3.29,10.27c3.1,4.71,7.25,8.27,12.42,10.62c6.61,2.98,13.62,4.22,20.79,4.92
			c2.91,0.29,5.83,0.52,8.74,0.79h10.37c0.37-0.08,0.74-0.17,1.12-0.21c3.91-0.37,7.83-0.62,11.72-1.12
			c5.75-0.74,11.39-2.02,16.63-4.57c8.18-4.03,13.72-10.11,15.17-19.45c0.81-5.23,1.05-10.46,0.97-15.73
			C155.32,111.8,155.03,111.16,154.36,110.52z M58.91,114.06c-0.47-0.99-0.87-1.84-1.36-2.83c8.47-4.05,16.86-8.08,25.34-12.15
			c0.47,0.97,0.89,1.84,1.38,2.83C75.8,105.96,67.43,109.97,58.91,114.06z M149.9,113.33c-7.96-3.82-15.83-7.6-23.83-11.41
			c0.48-1.01,0.89-1.86,1.36-2.83c7.94,3.82,15.81,7.58,23.83,11.41C150.81,111.45,150.38,112.32,149.9,113.33z"/>
		<path class="st0" d="M83.53,55.59c15.17,5.01,31.17,4.02,42.68,0.56c0.31,3.03,0.62,5.99,0.94,9.08c3.27,0.4,4.29-2.06,5.37-4.47
			c1.07,0.26,1.5,1.03,1.51,1.9c0.02,2.06,0.09,4.16-0.23,6.18c-0.35,2.24-1.6,3.95-4.02,4.57c-0.37,0.09-0.71,0.77-0.85,1.24
			c-1.56,5.15-3.93,9.85-7.65,13.78c-4.55,4.8-10.01,7.6-16.79,7.13c-5.88-0.4-10.54-3.25-14.42-7.51
			c-3.52-3.86-5.82-8.41-7.28-13.4c-0.22-0.75-0.48-1.19-1.37-1.41c-1.95-0.48-3.14-2.01-3.44-3.84c-0.38-2.27-0.33-4.62-0.32-6.93
			c0-0.56,0.58-1.12,1.01-1.89c1.32,3.92,2.03,4.64,4.58,4.58c0-1.56-0.04-3.14,0.01-4.72C83.3,58.85,83.43,57.26,83.53,55.59z"/>
		<path class="st0" d="M136.55,49.42c-20.6,9.92-40.87,9.93-61.47,0.01c9.87-4.68,19.93-7.44,30.64-7.47
			C116.47,41.93,126.57,44.74,136.55,49.42z"/>
		<polygon class="st0" points="107.53,115.47 112.31,147.76 98.84,147.76 103.61,115.47 96.7,102.57 105.57,98.89 114.44,102.57 		
			"/>
		<path class="st0" d="M138.74,44.81c-0.1,0.95-0.45,1.88-0.7,2.96c-10.31-4.96-20.91-7.91-32.18-7.91
			c-11.28-0.02-21.88,2.91-32.13,7.83c-1.14-2.05-1.1-4.13-0.62-6.24c0.79-3.43,2.71-6.22,5.19-8.62
			c6.98-6.74,16.7-11.57,27.44-11.59c0.02,0,0.02,0,0.04,0h0.02c5.97,0,12.23,1.47,18.49,4.92c4.48,2.44,8.51,5.44,11.53,9.63
			C137.75,38.47,139.05,41.4,138.74,44.81z"/>
	</g>
	<path class="st0" d="M18.4,124.5c-1.05-3.67-2.1-7.09-2.99-10.55c-0.61-2.36-1.06-4.76-1.47-7.16c-0.27-1.6-1.03-2.78-2.26-3.81
		c-2.47-2.05-4.96-4.1-7.23-6.36c-2.66-2.65-3.89-6.09-3.92-9.78C0.5,82.77,0.87,78.7,1.09,74.25c5.29,4.39,9.95,8.72,9.79,15.94
		c-0.04,1.92-0.45,3.89-1.06,5.72c-0.56,1.7-0.28,2.88,1,4.03c0.66,0.59,1.13,1.4,1.69,2.11c0.21-0.13,0.43-0.27,0.64-0.4
		c-0.1-1.28-0.31-2.56-0.29-3.83c0.07-4.69,0.27-9.39,0.28-14.08c0-1.18-0.24-2.5-0.81-3.52c-1.55-2.81-3.24-5.55-5.02-8.23
		c-2.37-3.57-2.78-7.42-1.57-11.37c1.2-3.9,2.75-7.68,4.17-11.56c5.67,4.73,7.27,14.51,2.93,21.02c-1.9,2.85-1.9,4.93-0.08,7.43
		c0.26,0.36,0.49,0.75,0.81,1.24c1.18-4.16,2.31-8.11,3.43-12.06c0.03-0.12,0.11-0.23,0.12-0.34c0.19-2.97,3.46-5.07,2.18-8.55
		c-1.06-2.9-1.42-6.04-2.42-8.97c-1.44-4.23-0.78-8.14,1.56-11.71c2.13-3.25,4.68-6.23,7.06-9.31c0.13-0.17,0.35-0.28,0.56-0.44
		c3.33,9.3,3.05,15.37-4.88,21.69c-1.31,1.04-1.67,2.06-1.28,3.57c0.34,1.32,0.59,2.67,0.97,4.39c1.83-3.05,3.3-5.78,5.03-8.33
		c2.02-2.97,4.27-5.77,6.4-8.66c0.31-0.42,0.7-0.92,0.73-1.4c0.17-2.8,0.57-5.64,0.28-8.4c-0.59-5.55,1.78-9.55,5.92-12.78
		c2.78-2.17,5.66-4.21,8.5-6.32c1.7,4.57-0.63,12.91-4.65,15.97c-1.87,1.42-3.96,2.62-6.09,3.62c-1.32,0.62-1.89,1.31-1.82,2.73
		c0.05,0.96-0.12,1.92-0.24,3.42c0.91-0.83,1.49-1.38,2.1-1.91c3.31-2.87,6.66-5.69,9.91-8.63c1.05-0.95,2.06-2.08,2.7-3.32
		c3.63-7.02,7.67-8.48,14.62-8.43c2.01,0.02,4.02,0.22,6.32,0.36c-1.39,1.68-2.62,3.29-3.98,4.78c-4.36,4.78-9.2,8.46-16.27,6.96
		c-0.42-0.09-1.04,0.03-1.36,0.3c-3.77,3.19-7.49,6.42-11.22,9.66c-0.16,0.14-0.22,0.39-0.42,0.77c2.3-0.17,4.22-0.41,5.81-2.23
		c2.13-2.42,5.09-3.78,8.27-3.74c4.6,0.06,9.2,0.63,13.83,1.31c-4.49,4.02-8.34,8.98-15.2,8.15c-1.62-0.2-3.27-0.53-4.77-1.13
		c-2.08-0.83-4.04-1.27-6.35-0.8c-2.59,0.53-4.86,1.08-6.42,3.54c-2.57,4.05-5.38,7.95-8.07,11.92c-0.12,0.18-0.13,0.43,0.12,1.04
		c0.95-0.62,2.33-1.02,2.77-1.9c2.68-5.4,7.29-7.61,12.93-8.27c2.9-0.34,5.81-0.64,9.08-1.01c-2.65,3.85-4.64,7.84-8.39,10.3
		c-3.28,2.16-7.08,2.07-10.81,1.51c-3.63-0.54-7.61,1.32-8.88,4.73c-1.81,4.9-3.32,9.92-4.94,14.89c-0.14,0.44-0.15,0.94-0.25,1.64
		c1.77-0.85,2.99-1.74,3.33-3.67c0.81-4.61,3.62-7.8,7.73-9.79c3.28-1.58,6.67-2.92,10.09-4.39c0.43,7.93-6.17,15.96-13.73,16.45
		c-3.57,0.23-5.7,2.37-7.74,4.6c-0.86,0.95-0.85,2.87-0.88,4.36c-0.07,5.17,0.02,10.35,0.06,15.52c0,0.21,0.11,0.41,0.25,0.89
		c1.37-1.9,2.75-3.34,2.47-5.82c-0.56-5.06,1.57-9.1,5.42-12.31c2.48-2.06,4.94-4.14,7.82-6.56c-0.1,4.44,0.44,8.43-0.82,12.32
		c-1.35,4.16-4.51,6.61-8.36,8.12c-3.63,1.43-4.7,4.81-6.14,7.77c-0.59,1.23,0.17,3.22,0.58,4.8c1.21,4.6,2.54,9.16,3.84,13.73
		c0.08,0.27,0.3,0.5,0.48,0.78c1.55-2.28,1.91-4.8,1.11-7.14c-1.37-3.99-0.99-7.89,1.13-11.46c2.01-3.39,4.37-6.58,6.81-9.81
		c1.56,5.89,4.44,11.73,0.61,17.67c-1.23,1.91-3.15,3.36-4.68,5.08c-0.69,0.78-1.33,1.66-1.79,2.6c-2.19,4.41-1.78,8.57,1.07,12.65
		c2.49,3.57,4.71,7.34,7.39,10.9c0.16-2.45,1.24-4.78-0.42-7.11c-2.82-3.96-3.55-8.36-2.05-13.03c1.13-3.53,2.39-7.02,3.83-10.54
		c2.41,4.51,5.76,8.53,5.76,13.94c0,3.68-1.89,6.59-3.75,9.54c-0.58,0.92-0.93,2.07-1.07,3.16c-0.21,1.56-0.32,3.18-0.15,4.74
		c0.12,1.12,0.53,2.38,1.24,3.22c3.69,4.34,8.1,7.9,12.82,11.08c0.29,0.2,0.64,0.3,1.37,0.64c-0.92-2.66-0.85-5.1-3.19-6.97
		c-3.65-2.92-5.32-7.1-5.38-11.76c-0.04-3.76,0.23-7.53,0.38-11.68c2.25,2.19,4.3,4.04,6.18,6.04c4.5,4.78,5.13,10.35,2.84,16.28
		c-0.88,2.27,0.11,4.16,0.45,6.23c0.43,2.59,1.66,4.34,4.24,5.34c4.98,1.92,9.85,4.1,14.96,6.25c0.02-2.12-1.79-4.93-3.26-5.48
		c-5-1.89-8.29-5.49-10.01-10.45c-1.27-3.67-2.23-7.44-3.14-11.3c5.74,3.06,12.35,5.07,14.45,12.24c0.69,2.36,0.69,4.92,1.09,7.38
		c0.56,3.37,2.05,6.38,5.24,7.75c6.08,2.61,12.33,4.8,18.5,7.2c0.93,0.36,1.64,0.55,2.37-0.44c0.34-0.47,1.23-0.9,1.76-0.79
		c1.62,0.32,3.18,0.07,4.77,0.06c1.25-0.01,2.45,0.38,3.78-0.07c0.58-0.19,1.62,0.24,2.11,0.74c0.79,0.79,1.44,0.83,2.41,0.46
		c4.19-1.62,8.4-3.18,12.67-4.79c-1-6.88,2.49-11.26,7.67-14.75c0.7-0.47,1.39-0.99,1.96-1.6c2.58-2.76,5.75-3.51,9.35-2.89
		c0.9,0.15,1.79,0.37,2.43,0.5c1.89-2.86,4.04-5.47,5.47-8.42c2.25-4.67,6.08-5.96,10.75-6.06c0.18,0,0.35-0.03,0.2-0.01
		c0.99-3.7,2.07-7.22,2.87-10.81c0.94-4.23,3.81-6.33,7.63-7.55c0.51-0.16,1.03-0.31,1.24-0.37c-0.2-3.56-0.07-6.98-0.66-10.28
		c-0.81-4.54,1.15-7.49,4.58-9.91c0.79-0.56,1.61-1.06,2.54-1.67c-3.5-3.53-3.95-8.27-5.29-12.55c-0.99-3.15,0.96-5.87,3.18-8.11
		c0.51-0.51,1.18-0.86,1.81-1.32c-1.65-1.53-3.1-2.57-4.16-3.91c-1.72-2.19-3.23-4.55-4.75-6.9c-1.59-2.47-1.12-5.02-0.02-7.51
		c0.52-1.16,1.19-2.26,1.88-3.54c-0.45-0.16-0.89-0.29-1.3-0.48c-1.55-0.7-3.23-1.21-4.6-2.17c-2.14-1.49-4.19-3.16-6.06-4.98
		c-2.29-2.23-2.3-5.11-1.67-8.03c0.2-0.95,0.52-1.87,0.85-3.05c-1.67,0-3.32,0.36-4.72-0.07c-3.46-1.07-6.93-2.27-10.17-3.88
		c-2.19-1.09-2.94-3.56-3.03-5.95c-0.12-3.03-0.08-6.07,0.03-9.11c0.08-2.13,1.51-3.56,3.84-3.97c3.18-0.57,6.36-1.12,9.56-1.57
		c2.67-0.37,4.99,0.23,6.97,2.31c2.23,2.35,4.81,4.47,5.51,7.79c0.43,2.04,0.34,4.2,0.5,6.69c1.73,0.23,3.81,0.66,5.9,0.73
		c3.9,0.14,6.78,1.7,8.45,5.31c0.66,1.43,1.49,2.8,2.02,4.27c1.3,3.57,1.09,7.07-1.05,10.65c1.73,0.77,3.32,1.64,5.01,2.2
		c3.94,1.3,6.17,3.79,7.06,7.97c1.15,5.44,0.99,10.4-3.17,14.87c4.16,3.39,9.14,5.92,8.34,12.69c-0.65,5.54-1.95,10.39-6.86,13.7
		c0.59,0.83,1,1.59,1.58,2.19c3.75,3.9,4.14,8.17,2.09,13.1c-1.84,4.43-4.15,8.24-8.73,10.28c-0.32,0.14-0.54,1.02-0.44,1.47
		c0.34,1.42,0.88,2.79,1.31,4.19c0.92,3.01,0.5,5.78-1.6,8.19c-1.87,2.15-3.56,4.52-5.72,6.34c-1.61,1.35-3.77,2.21-5.82,2.84
		c-1.45,0.45-2.05,0.92-1.87,2.44c0.14,1.21,0.1,2.44,0.06,3.66c-0.09,3.08-1.47,5.5-4.06,7.13c-2.82,1.77-5.62,3.61-8.62,5.01
		c-1.58,0.74-3.56,0.8-5.36,0.81c-1.32,0-1.86,0.39-2.12,1.6c-0.57,2.64-1.23,5.25-3.45,7.09c-0.19,0.16-0.32,0.4-0.53,0.51
		c-6.02,3.2-14.58,6.16-21.34,1.79c-1.25-0.81-2.21-2.06-3.4-2.98c-0.46-0.36-1.3-0.67-1.78-0.49c-4.22,1.56-8.41,3.22-12.58,4.92
		c-0.57,0.23-0.96,0.89-1.43,1.36c0.53,0.42,1,1.03,1.6,1.22c3.53,1.15,7.09,2.21,10.65,3.3c3.5,1.06,6.99,2.12,10.56,3.5
		c-2.04,0.42-4.06,0.9-6.11,1.23c-2.05,0.33-4.12,0.52-6.19,0.71c-0.45,0.04-0.94-0.09-1.37-0.26c-2.5-0.95-5-1.93-7.49-2.93
		c-1.45-0.58-2.73-0.9-4.46-0.51c-1.97,0.45-4.17-0.16-6.28-0.3c-0.33-0.02-0.72-0.1-0.98,0.04c-1.12,0.58-2.16,0.61-3.29-0.01
		c-0.39-0.22-1.06-0.18-1.51-0.01c-2.79,1.06-5.54,2.21-8.32,3.3c-0.42,0.17-0.94,0.29-1.37,0.21c-3.58-0.73-7.15-1.51-10.76-2.6
		c1.44-0.45,2.87-0.9,4.31-1.33c4.72-1.44,9.44-2.85,14.14-4.34c0.69-0.22,1.27-0.76,1.91-1.16c-0.57-0.47-1.06-1.12-1.71-1.37
		c-6.03-2.27-12.08-4.47-18.12-6.7c-3.06-1.13-6.01-0.38-8.55,1.19c-5.68,3.5-11.17,3.15-16.76-0.02c-3.17-1.8-6.34-3.58-9.55-5.38
		c8.71-4.66,15.6-5.13,22.96,1.07c3.04,2.56,4.06,2.67,7.76,0.51c-2.33-0.76-4.63-1.32-6.77-2.23c-3.74-1.6-7.39-3.44-11.09-5.14
		c-0.59-0.27-1.26-0.54-1.88-0.52c-3.16,0.09-6.35,0.01-9.47,0.48c-4.44,0.66-8.37-0.47-11.58-3.27c-3.57-3.1-6.68-6.73-10.07-10.21
		c6.67-2.35,16.05,0.51,20.03,5.95c0.47,0.64,1.1,1.22,1.35,1.94c1.21,3.42,3.74,3.91,7.51,2.61c-0.46-0.13-0.99-0.16-1.37-0.42
		c-4.67-3.24-9.07-6.8-12.78-11.12c-2.54-2.97-6.23-3.36-9.59-3.78c-6.06-0.75-10.36-3.6-13.17-8.87c-1.77-3.31-3.43-6.68-5.17-10.1
		c8.44-0.34,16.35,5.81,18.52,14.24c0.84,3.29,1.37,3.7,5.23,3.94c-0.4-0.67-0.72-1.21-1.04-1.75c-2.87-4.86-5.72-9.73-8.62-14.58
		c-0.44-0.74-1.01-1.54-1.73-1.94c-2.65-1.48-5.37-2.84-8.08-4.2c-4.26-2.13-6.8-5.62-7.94-10.14c-0.95-3.76-1.72-7.56-2.59-11.46
		c8.46,2.21,14.46,9.46,14.2,17.72C14.09,122.01,15.53,123.4,18.4,124.5z M139.85,154.66c-1.5,0.48-3.04,0.74-4.33,1.45
		c-1.08,0.6-2.45,1.44-1.88,3.13c0.77,2.28,2.09,4.09,4.51,4.92c1.09,0.37,2.16,0.85,3.18,1.38c2.2,1.14,2.7,2.59,1.7,4.82
		c-0.37,0.83-0.86,1.6-1.27,2.4c-0.63,1.23-0.73,2.39,0.22,3.57c0.95,1.17,2.01,1.6,3.52,1.22c2.67-0.68,4.62-2.14,5.52-4.8
		c1.18-3.45,2.32-6.91,3.46-10.38c0.65-1.97,0.31-2.59-1.63-3.33c-2.21-0.84-4.39-1.76-6.62-2.51
		C144.17,155.82,142.05,155.29,139.85,154.66z M159.34,141.27c-2.12,0.05-5.17,0.45-7.06,3.53c-0.62,1.01-0.79,1.86,0.06,2.96
		c1.53,1.99,3.45,2.99,5.91,3.12c0.97,0.05,1.95,0.16,2.9,0.37c2.19,0.49,3.08,1.75,2.85,3.97c-0.11,1.03-0.41,2.03-0.54,3.05
		c-0.28,2.26,2.11,4.47,3.94,3.62c2.82-1.29,4.56-3.41,4.65-6.64c0.09-3.53,0.19-7.07,0.28-10.6c0.03-1.45-0.42-2.52-2.1-2.63
		C166.95,141.81,163.68,141.57,159.34,141.27z M170.76,132.89c0.08-0.13,0.16-0.27,0.24-0.4c1.45-0.2,2.89-0.47,4.34-0.58
		c2.85-0.21,4.07,0.81,4.42,3.6c0.11,0.85,0.15,1.7,0.26,2.55c0.18,1.39,1.09,2.05,2.37,2.41c1.17,0.33,2.05,0.14,2.94-0.79
		c2.07-2.18,2.47-4.62,1.66-7.43c-0.86-2.98-1.67-5.98-2.44-8.98c-0.61-2.39-1.41-2.87-3.8-2.29c-1.69,0.42-3.42,0.69-5.14,1.02
		c-1.2,0.23-2.43,0.34-3.59,0.69c-3.01,0.93-5.74,2.26-6.3,5.83c-0.09,0.59,0.01,1.56,0.38,1.81
		C167.57,131.29,169.19,132.05,170.76,132.89z M196.28,109.56c-0.42-0.88-0.97-2.36-1.8-3.66c-1.67-2.61-3.49-5.12-5.24-7.69
		c-0.84-1.24-1.83-1.97-3.36-1.12c-2.8,1.56-5.68,2.98-8.35,4.73c-2.28,1.49-4.11,3.49-3.98,6.56c0.06,1.36,0.57,2.2,2.03,2.59
		c2.13,0.58,4.05,0.39,5.98-0.66c4.94-2.69,5.97-2.34,8.3,2.74c0.61,1.32,1.51,1.84,2.97,1.94
		C195.18,115.14,195.97,112.9,196.28,109.56z M198.43,84.41c-0.83-1.42-1.41-3.1-2.55-4.2c-2.49-2.41-5.25-4.53-7.91-6.76
		c-1.61-1.34-2.46-1.26-3.92,0.2c-1.45,1.45-3,2.8-4.44,4.27c-1.1,1.13-2.24,2.27-3.1,3.58c-1.2,1.82-1.57,3.86-0.45,5.89
		c0.27,0.5,0.93,1.02,1.47,1.09c2.53,0.34,4.8-0.23,6.67-2.16c0.82-0.85,1.81-1.7,2.89-2.12c2.5-0.96,3.77,0.98,5.05,2.59
		c1.13,1.42,2.42,1.88,4.17,1.3C198.08,87.51,197.78,85.96,198.43,84.41z M170.72,61.02c-0.06,4.74,2.17,6.37,5.37,4.93
		c1.16-0.52,2.13-1.55,3.04-2.48c0.79-0.81,1.32-1.89,2.09-2.73c1.33-1.45,2.73-1.59,4.41-0.57c0.93,0.57,1.8,1.47,2.79,1.65
		c1.06,0.19,2.4-0.05,3.31-0.61c0.57-0.35,0.83-1.65,0.76-2.49c-0.2-2.34-1.67-3.82-3.77-4.75c-2.89-1.28-5.77-2.59-8.64-3.91
		c-2.02-0.93-2.9-0.59-3.96,1.4c-0.67,1.27-1.53,2.44-2.23,3.69C172.64,57.4,171.44,59.68,170.72,61.02z M159.41,41.78
		c0.26,1.05,0.38,1.98,0.72,2.81c0.99,2.38,2.73,2.92,4.93,1.63c1.59-0.93,2.71-2.21,3.17-4.04c0.21-0.82,0.53-1.62,0.9-2.39
		c1.01-2.07,2.38-2.66,4.61-2.05c1,0.27,1.98,0.67,3,0.78c2.32,0.24,3.78-1.96,2.82-4.06c-0.84-1.83-2.28-2.86-4.19-3.16
		c-3.43-0.54-6.88-0.96-10.31-1.45c-1.65-0.24-2.49,0.54-2.89,2.07c-0.45,1.68-1.02,3.33-1.49,5.01
		C160.22,38.57,159.82,40.23,159.41,41.78z M142.93,24.3c-0.14,0.02-0.29,0.04-0.43,0.06c0.38,1.58,0.53,3.26,1.17,4.72
		c1.25,2.84,4.01,3.11,5.99,0.8c1.23-1.43,1.61-3.07,1.61-4.9c0-3.95,1.37-5.29,5.26-5.23c0.37,0.01,0.73,0.05,1.1,0.03
		c1.61-0.1,2.8-1.04,2.91-2.51c0.07-0.91-0.63-2.31-1.41-2.78c-1.17-0.7-2.75-1.15-4.09-1.02c-3.38,0.33-6.73,1.04-10.09,1.61
		c-1.33,0.22-2.04,0.96-2.03,2.36C142.94,19.72,142.93,22.01,142.93,24.3z M63.11,174.45c-5.39-6.02-12.48-7.6-18.96-4.32
		C51.38,175.13,57.76,177.83,63.11,174.45z M23.75,152.2c6.23,7.6,10.96,11.26,16.76,9.75C37.49,154.86,31.35,151.24,23.75,152.2z
		 M23.02,143.52c-0.7-7.81-6.06-13.21-13.12-13.76C13.03,135.59,15.03,142.32,23.02,143.52z M3.13,104.69
		c0.78,7.34,2.81,14.41,8.8,16.27C13.21,113.46,9.65,107.33,3.13,104.69z M56.97,146.64c1.22,7.53,4.62,14.46,10.02,15.48
		C67.83,154.48,64.29,149.55,56.97,146.64z M48.25,152.25c3.21-6.5,1-14.47-4.89-17.79C43.13,140.88,42.27,147.4,48.25,152.25z
		 M3.05,78.75C1.86,87.3,2.61,94.02,7.56,96.34C10.35,89.69,8.68,82.99,3.05,78.75z M33.91,118.67c-3.35,7.01-4.23,13.42-0.34,17.75
		C38.34,131.07,38.46,125.22,33.91,118.67z M10.47,53.39C8.26,59.45,5,65.21,9.36,71.53C14.23,66.58,14.72,59.03,10.47,53.39z
		 M28.81,100.22c-5.07,5.75-7.62,12.04-4.83,16.76C29.98,112.89,31.33,108.28,28.81,100.22z M25.19,31.61
		c-6.02,6.69-8.55,11.66-6.16,16.57C25.1,44.49,27.47,38.2,25.19,31.61z M19.9,95.67c6.7-2.05,9.77-7.1,8.87-14.44
		C22.77,84.86,18.66,90.21,19.9,95.67z M46.01,15.11c-6.85,4.06-11.54,8.5-10.58,13.98C42.83,26.74,45.94,22.33,46.01,15.11z
		 M34.26,63.13c-6.71,1.78-12.41,5.48-12.71,10.95C28.12,74.44,33.24,70.03,34.26,63.13z M66.22,16.87
		c-7.66-1.22-13.85,2.13-14.77,7.86C56.83,26.03,62.06,22.63,66.22,16.87z M29.48,53.86c7.44,1.86,13.01-0.95,15.28-7.15
		C38.89,47.38,32.92,47.6,29.48,53.86z M61.05,34.01c-6.08-0.79-12.05-2.21-16.93,3.02C50.16,40.5,55.69,39.53,61.05,34.01z
		 M107.02,182.26c-0.06-1.05-0.06-2.15-0.22-3.22c-0.06-0.37-0.53-0.68-0.81-1.02c-0.29,0.34-0.83,0.67-0.84,1.02
		c-0.08,2.18-0.09,4.36,0,6.53c0.02,0.37,0.62,0.71,0.96,1.06c0.24-0.36,0.64-0.69,0.7-1.08
		C106.95,184.49,106.96,183.39,107.02,182.26z M102.64,182.55C102.64,182.55,102.64,182.54,102.64,182.55
		c-0.01-1.16,0.06-2.32-0.04-3.46c-0.03-0.37-0.5-0.7-0.77-1.05c-0.32,0.36-0.91,0.7-0.92,1.07c-0.09,2.19-0.09,4.38,0,6.57
		c0.01,0.35,0.63,0.68,0.96,1.02c0.26-0.34,0.71-0.67,0.74-1.04C102.71,184.62,102.64,183.58,102.64,182.55z M98.35,182.48
		c0-1.09,0.08-2.19-0.04-3.27c-0.04-0.42-0.53-0.79-0.81-1.18c-0.3,0.33-0.85,0.64-0.86,0.98c-0.08,2.24-0.07,4.48,0,6.72
		c0.01,0.34,0.53,0.66,0.82,0.99c0.3-0.38,0.8-0.74,0.85-1.15C98.44,184.55,98.35,183.51,98.35,182.48z"/>
	<g>
		<path class="st0" d="M101.74,4.32c-16.04,0-31.1,4.32-44.06,11.88l4.57-0.31c11.84-6.16,25.27-9.63,39.49-9.63
			c14.78,0,28.72,3.76,40.88,10.35l0.6-1.2l0.7-0.27C131.39,8.23,117.01,4.32,101.74,4.32z"/>
	</g>
</g>
<g>
</g>
<g>
</g>
<g>
</g>
<g>
</g>
<g>
</g>
<g>
</g>
</svg>
