<?xml version="1.0" encoding="UTF-8"?>
<!DOCTYPE svg PUBLIC "-//W3C//DTD SVG 1.1//EN" "http://www.w3.org/Graphics/SVG/1.1/DTD/svg11.dtd">
<!-- Creator: CorelDRAW X7 -->
<svg xmlns="http://www.w3.org/2000/svg" xml:space="preserve" width="230mm" height="230mm" version="1.1" style="shape-rendering:geometricPrecision; text-rendering:geometricPrecision; image-rendering:optimizeQuality; fill-rule:evenodd; clip-rule:evenodd"
viewBox="0 0 23000 23000"
 xmlns:xlink="http://www.w3.org/1999/xlink"
 data-name="Layer 1">
 <defs>
  <style type="text/css">
   <![CDATA[
    .fil0 {fill:none}
    .fil1 {fill:#B9BDC9}
   ]]>
  </style>
 </defs>
 <g id="Layer_x0020_1">
  <metadata id="CorelCorpID_0Corel-Layer"/>
  <rect class="fil0" width="23000" height="23000"/>
  <rect class="fil0" x="388" y="388" width="22225" height="22225"/>
  <g id="_2079022548144">
   <g>
    <path class="fil1" d="M17407 12831c-886,-850 -1948,-1364 -3132,-1645 -25,-7 -47,-9 -63,-5l-2102 5372 -2123 -5424c-13,-2 -29,-2 -51,3 -1285,258 -2434,793 -3389,1705 -57,52 -108,152 -106,225 19,528 32,1059 83,1584 38,391 134,779 357,1115 337,511 787,898 1349,1153 717,324 1478,458 2257,534 316,32 633,57 949,86l1126 0c40,-9 80,-18 121,-23 425,-40 850,-67 1273,-121 624,-81 1236,-220 1805,-497 888,-437 1490,-1097 1647,-2111 88,-568 114,-1136 106,-1708 -3,-103 -34,-173 -108,-242l1 -1zm-10363 385c-51,-107 -95,-200 -148,-307 920,-440 1831,-877 2751,-1319 51,105 97,199 150,307 -919,440 -1828,875 -2753,1319zm9879 -80c-864,-415 -1719,-825 -2587,-1239 52,-110 96,-202 147,-307 862,414 1717,823 2588,1239 -49,103 -95,197 -148,307z"/>
    <path class="fil1" d="M9717 6867c1647,544 3384,436 4634,61 33,329 67,650 102,985 355,44 466,-223 583,-485 116,28 163,112 164,206 2,224 10,452 -25,671 -38,244 -174,429 -437,497 -40,9 -77,83 -92,134 -169,559 -427,1070 -830,1496 -494,521 -1087,825 -1823,774 -639,-43 -1145,-352 -1566,-815 -382,-419 -632,-913 -790,-1455 -24,-81 -53,-129 -149,-153 -212,-52 -341,-218 -374,-417 -41,-246 -35,-501 -34,-752 0,-61 63,-122 109,-205 144,425 221,503 498,497 0,-170 -5,-341 1,-513 5,-172 18,-344 29,-526z"/>
    <path class="fil1" d="M15473 6197c-2236,1077 -4437,1078 -6673,1 1071,-508 2163,-808 3326,-811 1167,-3 2264,302 3347,810z"/>
    <polygon class="fil1" points="12323,13369 12842,16874 11379,16874 11897,13369 11147,11968 12110,11569 13073,11968 "/>
    <path class="fil1" d="M15711 5696c-11,104 -49,205 -76,322 -1119,-539 -2270,-859 -3494,-859 -1224,-2 -2375,316 -3488,850 -124,-222 -119,-448 -67,-677 85,-373 294,-676 563,-936 758,-732 1813,-1256 2979,-1259l7 0c648,0 1328,160 2007,535 487,264 924,590 1252,1045 211,290 352,608 318,978l-1 1z"/>
   </g>
   <path class="fil1" d="M2646 14349c-114,-399 -228,-770 -325,-1146 -66,-256 -115,-517 -160,-777 -29,-174 -111,-302 -245,-414 -268,-223 -539,-445 -785,-690 -289,-288 -422,-662 -426,-1062 -3,-442 38,-884 61,-1367 575,476 1081,947 1063,1730 -4,209 -49,423 -115,621 -61,185 -30,313 109,438 71,64 122,152 183,229 23,-14 47,-29 70,-43 -11,-139 -34,-278 -32,-416 8,-509 29,-1020 31,-1529 0,-128 -27,-271 -88,-382 -169,-305 -352,-603 -545,-894 -258,-387 -302,-805 -171,-1234 130,-423 299,-834 453,-1255 615,513 789,1575 318,2282 -206,309 -206,535 -9,807 28,39 53,81 88,134 128,-451 251,-880 373,-1309 3,-13 12,-25 13,-37 20,-322 375,-550 236,-928 -115,-315 -154,-656 -262,-974 -157,-459 -85,-884 169,-1272 231,-352 508,-676 766,-1010 15,-19 38,-31 61,-48 362,1010 331,1669 -530,2355 -142,113 -181,223 -139,387 37,144 65,290 106,477 198,-331 358,-627 546,-904 219,-323 464,-627 695,-941 33,-45 76,-99 79,-152 18,-304 62,-612 30,-912 -64,-602 194,-1036 643,-1387 302,-236 615,-457 923,-686 185,496 -68,1401 -505,1734 -203,154 -430,284 -661,393 -143,67 -205,142 -198,296 6,104 -13,208 -26,371 99,-90 162,-149 228,-207 360,-312 723,-618 1076,-937 114,-103 224,-226 293,-360 395,-763 833,-921 1588,-916 218,2 436,24 686,39 -151,183 -285,358 -432,519 -474,519 -999,919 -1767,756 -45,-10 -113,3 -147,33 -410,346 -814,697 -1219,1048 -17,16 -23,43 -45,84 250,-18 458,-45 631,-242 231,-263 552,-411 898,-406 499,6 998,68 1501,142 -487,436 -905,975 -1650,885 -176,-22 -355,-58 -518,-123 -226,-90 -439,-138 -689,-87 -282,58 -528,118 -698,385 -279,439 -584,863 -876,1294 -13,19 -14,47 13,113 103,-68 253,-111 301,-207 291,-586 792,-826 1404,-897 315,-37 631,-70 986,-110 -288,418 -504,851 -911,1118 -356,235 -769,225 -1174,164 -394,-58 -826,144 -964,514 -196,532 -360,1077 -536,1616 -16,48 -17,102 -27,178 192,-92 324,-188 361,-398 88,-501 393,-847 839,-1063 356,-171 725,-317 1096,-477 47,861 -670,1733 -1491,1786 -387,25 -619,258 -840,500 -94,103 -92,311 -96,473 -7,562 2,1124 7,1685 0,23 12,45 27,97 149,-206 298,-363 268,-632 -61,-549 171,-988 589,-1336 269,-224 536,-450 849,-713 -11,482 47,916 -89,1338 -147,452 -490,718 -908,881 -394,156 -510,523 -667,844 -64,134 19,350 63,521 132,500 276,995 417,1491 9,29 33,54 52,85 169,-248 208,-522 121,-776 -149,-433 -108,-856 122,-1244 219,-368 475,-714 740,-1065 169,640 482,1274 66,1919 -133,207 -342,364 -508,551 -75,85 -144,180 -194,282 -238,479 -194,931 116,1374 270,387 511,797 802,1183 18,-266 135,-519 -45,-772 -307,-430 -386,-907 -223,-1414 123,-384 259,-763 416,-1145 261,490 625,926 625,1514 0,399 -205,715 -407,1036 -63,99 -101,224 -116,343 -23,169 -35,345 -16,514 13,122 57,259 134,350 401,471 880,858 1392,1203 32,22 70,32 149,69 -100,-288 -92,-553 -346,-756 -397,-317 -578,-771 -585,-1277 -4,-408 25,-818 42,-1268 244,237 467,438 671,655 488,519 557,1124 308,1768 -96,246 12,452 49,676 47,282 180,472 460,580 541,209 1070,445 1624,679 3,-230 -194,-535 -354,-595 -542,-205 -900,-596 -1086,-1135 -138,-398 -242,-808 -341,-1227 623,333 1341,551 1569,1329 75,257 75,534 118,802 61,365 223,692 569,841 660,283 1339,521 2008,782 101,39 179,59 258,-48 37,-51 133,-98 191,-86 176,35 345,8 518,7 135,0 266,41 410,-8 63,-21 176,26 229,80 86,86 157,91 262,50 455,-176 912,-345 1376,-520 -109,-747 270,-1222 832,-1601 76,-51 151,-108 213,-174 280,-300 624,-381 1015,-314 98,17 195,41 264,55 205,-311 439,-594 594,-915 244,-507 660,-647 1167,-657 20,0 38,-4 22,-2 107,-401 225,-783 311,-1173 103,-460 414,-688 829,-820 55,-17 112,-34 134,-40 -21,-387 -7,-758 -71,-1116 -88,-493 125,-813 497,-1076 86,-61 175,-115 276,-182 -380,-383 -429,-897 -574,-1362 -108,-342 104,-637 345,-881 55,-55 128,-93 196,-143 -179,-166 -336,-279 -451,-424 -187,-238 -351,-494 -516,-750 -173,-268 -122,-545 -2,-815 56,-126 129,-245 204,-384 -49,-18 -97,-32 -141,-52 -169,-76 -351,-132 -500,-236 -232,-162 -455,-343 -658,-541 -248,-242 -249,-555 -181,-872 22,-103 56,-203 92,-331 -181,0 -360,39 -512,-7 -376,-117 -753,-247 -1104,-422 -238,-118 -320,-386 -329,-646 -13,-329 -9,-659 3,-989 9,-231 164,-386 417,-431 345,-62 690,-121 1038,-170 290,-40 542,25 757,251 242,255 522,485 598,845 46,222 37,456 54,727 188,25 414,71 641,79 423,15 736,185 917,577 72,155 162,304 219,463 142,388 119,768 -114,1156 188,84 361,178 544,239 428,141 670,412 767,866 125,590 107,1129 -344,1614 451,368 992,643 905,1378 -70,601 -212,1128 -745,1487 64,90 109,173 172,238 407,424 449,887 227,1422 -200,481 -451,895 -948,1116 -35,16 -59,111 -48,160 37,154 96,303 142,455 100,327 55,628 -173,889 -203,234 -387,491 -621,689 -175,146 -410,240 -632,308 -158,49 -223,100 -203,265 15,131 11,265 6,397 -9,335 -159,597 -440,774 -307,193 -611,392 -936,544 -172,81 -387,87 -582,88 -144,0 -202,43 -231,174 -61,287 -133,570 -374,770 -21,17 -35,43 -58,55 -653,348 -1583,669 -2317,194 -135,-87 -240,-223 -369,-323 -50,-39 -141,-73 -193,-53 -458,169 -913,349 -1366,534 -62,25 -104,97 -155,148 57,45 108,111 174,132 383,125 769,240 1156,358 380,115 759,230 1146,380 -221,46 -440,98 -663,134 -222,36 -447,56 -672,77 -49,4 -102,-10 -149,-28 -271,-103 -543,-210 -813,-318 -157,-63 -296,-98 -484,-56 -214,49 -453,-17 -682,-32 -36,-3 -78,-11 -106,4 -122,63 -235,66 -358,-1 -42,-24 -115,-20 -164,0 -302,115 -601,240 -903,358 -45,19 -102,32 -149,23 -388,-79 -776,-164 -1168,-282 156,-49 312,-98 468,-145 513,-156 1025,-309 1535,-471 75,-24 138,-82 208,-126 -62,-51 -115,-121 -186,-149 -655,-246 -1312,-485 -1967,-727 -333,-123 -653,-41 -929,129 -616,380 -1212,342 -1819,-2 -344,-195 -689,-389 -1037,-584 946,-506 1694,-557 2493,116 330,278 440,290 842,55 -253,-82 -503,-143 -735,-242 -406,-173 -802,-373 -1204,-558 -64,-29 -137,-58 -204,-56 -343,10 -689,1 -1028,52 -482,72 -909,-51 -1257,-355 -388,-337 -726,-731 -1094,-1109 724,-255 1743,56 2175,646 51,70 119,133 146,211 132,371 407,424 816,283 -50,-14 -108,-17 -149,-45 -507,-352 -985,-739 -1387,-1208 -276,-322 -677,-364 -1042,-410 -658,-81 -1124,-391 -1430,-963 -192,-359 -372,-725 -561,-1097 916,-37 1775,631 2011,1546 91,358 149,402 568,428 -44,-73 -78,-131 -113,-190 -312,-527 -621,-1056 -936,-1583 -48,-80 -110,-167 -188,-210 -288,-161 -583,-309 -877,-456 -463,-232 -738,-611 -862,-1101 -103,-409 -187,-821 -281,-1245 918,240 1569,1028 1541,1924 -11,360 145,511 457,630l4 -6zm13186 3274c-163,52 -330,80 -470,158 -118,65 -266,156 -204,339 83,248 226,444 489,535 119,40 235,92 345,149 239,124 294,282 185,524 -40,90 -93,173 -138,260 -68,134 -79,260 24,388 103,127 218,174 382,132 290,-73 502,-232 600,-521 128,-374 251,-750 375,-1127 71,-214 34,-281 -177,-361 -240,-92 -476,-191 -719,-273 -223,-76 -453,-133 -692,-203zm2116 -1454c-230,6 -561,49 -767,384 -67,109 -85,202 7,321 166,216 374,325 641,339 106,5 212,17 315,40 238,53 335,190 310,431 -12,112 -45,220 -59,331 -30,245 229,485 428,393 306,-140 495,-370 505,-721 10,-383 20,-767 30,-1151 3,-157 -45,-273 -228,-285 -355,-24 -710,-50 -1181,-83l-1 1zm1240 -910c8,-14 17,-29 26,-43 157,-22 314,-51 471,-63 309,-23 442,88 480,391 12,92 16,185 28,277 20,151 118,222 257,261 127,36 223,16 320,-85 224,-237 268,-502 180,-807 -93,-324 -181,-649 -265,-975 -66,-259 -153,-312 -413,-249 -183,46 -371,75 -558,111 -130,25 -264,37 -389,75 -327,101 -624,245 -684,633 -10,64 0,169 41,197 160,105 336,187 507,279l-1 -2zm2771 -2531c-46,-96 -106,-257 -196,-398 -181,-283 -379,-556 -569,-835 -91,-134 -199,-214 -365,-121 -304,169 -616,323 -906,513 -248,162 -446,379 -432,712 6,148 62,239 220,282 231,63 440,42 649,-72 537,-292 649,-254 901,297 67,144 164,200 323,211 255,16 342,-226 375,-588l0 -1zm233 -2731c-90,-154 -153,-337 -277,-456 -270,-262 -570,-492 -859,-734 -175,-145 -267,-137 -425,22 -158,157 -326,304 -482,463 -120,123 -244,247 -337,389 -130,198 -170,419 -49,640 29,54 101,110 160,118 274,37 521,-25 724,-235 89,-92 196,-184 314,-230 271,-104 409,107 548,281 123,155 263,204 453,142 195,-65 163,-233 233,-401l-3 1zm-3008 -2540c-6,515 236,692 584,536 125,-57 231,-169 330,-270 85,-87 143,-205 226,-296 145,-157 297,-173 479,-62 101,62 196,160 303,179 115,21 261,-5 360,-66 61,-38 90,-179 82,-270 -22,-254 -181,-415 -409,-516 -314,-139 -627,-281 -938,-425 -220,-100 -315,-64 -430,152 -73,138 -166,265 -242,401 -136,244 -265,492 -343,637l-2 0zm-1227 -2088c28,114 41,214 78,305 107,258 296,317 535,177 173,-101 294,-240 344,-439 23,-89 58,-176 98,-260 108,-224 258,-288 500,-222 109,29 215,73 326,85 252,26 410,-213 306,-441 -91,-199 -247,-311 -455,-343 -372,-59 -747,-105 -1119,-158 -179,-26 -270,59 -314,225 -49,182 -111,362 -162,544 -50,178 -93,357 -136,525l-1 2zm-1790 -1899c-15,2 -31,4 -46,6 41,172 57,354 127,513 135,308 435,337 650,86 133,-155 175,-333 175,-532 0,-428 148,-574 571,-567 40,0 79,5 119,3 175,-11 304,-113 316,-273 8,-98 -68,-250 -153,-302 -127,-76 -298,-124 -444,-110 -367,36 -731,113 -1095,175 -145,23 -222,104 -221,256 2,248 0,497 0,746l1 -1zm-8667 16302c-585,-654 -1355,-825 -2059,-469 785,543 1478,836 2059,469zm-4274 -2416c677,825 1190,1223 1820,1059 -329,-770 -994,-1163 -1820,-1059zm-79 -942c-76,-848 -658,-1435 -1424,-1494 340,633 558,1362 1424,1494zm-2159 -4215c84,797 305,1564 955,1766 139,-814 -247,-1480 -955,-1766zm5845 4554c133,818 502,1570 1088,1681 92,-829 -293,-1365 -1088,-1681zm-946 611c348,-706 108,-1571 -531,-1932 -24,696 -118,1405 531,1932zm-4908 -7983c-129,929 -48,1658 490,1910 303,-721 121,-1449 -490,-1910zm3351 4335c-364,761 -460,1457 -37,1927 518,-581 529,-1216 37,-1927zm-2545 -7088c-239,658 -594,1283 -121,1969 529,-538 582,-1357 121,-1969zm1992 5084c-551,625 -827,1308 -524,1820 650,-444 798,-944 524,-1820zm-394 -7448c-654,727 -928,1266 -669,1799 659,-401 916,-1083 669,-1799zm-575 6955c728,-222 1061,-770 964,-1567 -651,394 -1098,975 -964,1567zm2835 -8747c-743,441 -1253,923 -1148,1518 804,-256 1142,-735 1148,-1518zm-1274 5213c-729,194 -1348,595 -1380,1189 712,39 1268,-439 1380,-1189zm3469 -5021c-832,-132 -1504,231 -1604,853 584,141 1151,-228 1604,-853zm-3989 4015c807,202 1412,-103 1659,-776 -638,72 -1286,96 -1659,776zm3427 -2155c-660,-86 -1308,-240 -1838,328 657,378 1257,271 1838,-328zm4991 16096c-6,-114 -6,-234 -24,-350 -6,-40 -57,-74 -88,-111 -31,37 -90,73 -91,111 -8,237 -9,473 0,709 2,40 68,77 105,115 26,-39 69,-75 76,-117 16,-117 16,-236 23,-358l-1 1zm-475 30c0,0 0,0 0,0 0,-126 6,-252 -5,-376 -3,-40 -54,-76 -83,-114 -35,40 -99,76 -100,117 -10,237 -10,475 0,713 1,38 68,74 104,111 28,-37 77,-73 81,-113 10,-111 4,-225 4,-337l-1 -1zm-466 -7c0,-119 9,-238 -4,-356 -5,-45 -58,-85 -88,-128 -33,36 -93,70 -94,107 -8,243 -7,486 0,729 1,37 58,72 89,108 33,-41 87,-80 93,-125 13,-111 4,-224 4,-335z"/>
   <path class="fil1" d="M11694 1300c-1741,0 -3377,469 -4784,1290l497 -34c1285,-668 2743,-1045 4287,-1045 1544,0 3118,408 4439,1124l65 -131 76 -29c-1361,-750 -2922,-1175 -4580,-1175z"/>
  </g>
 </g>
</svg>
