<?xml version="1.0" encoding="UTF-8"?>
<!DOCTYPE svg PUBLIC "-//W3C//DTD SVG 1.1//EN" "http://www.w3.org/Graphics/SVG/1.1/DTD/svg11.dtd">
<!-- Creator: CorelDRAW X7 -->
<svg xmlns="http://www.w3.org/2000/svg" xml:space="preserve" width="230mm" height="230mm" version="1.1" style="shape-rendering:geometricPrecision; text-rendering:geometricPrecision; image-rendering:optimizeQuality; fill-rule:evenodd; clip-rule:evenodd"
viewBox="0 0 23000 23000"
 xmlns:xlink="http://www.w3.org/1999/xlink">
 <defs>
  <style type="text/css">
   <![CDATA[
    .fil0 {fill:none}
    .fil1 {fill:#B9BDC9}
   ]]>
  </style>
 </defs>
 <g id="Layer_x0020_1">
  <metadata id="CorelCorpID_0Corel-Layer"/>
  <rect class="fil0" width="23000" height="23000"/>
  <rect class="fil0" x="388" y="388" width="22225" height="22225"/>
  <g id="_2079020555712">
   <g>
    <g>
     <g>
      <path class="fil1" d="M17788 6273c-119,-14 -240,-16 -359,-38 -479,-85 -932,-257 -1357,-491 -524,-286 -1044,-585 -1546,-908 -758,-491 -1549,-914 -2372,-1285 -218,-99 -439,-163 -661,-163 -153,0 -308,30 -464,101 -413,186 -839,350 -1232,573 -795,454 -1565,947 -2353,1414 -511,303 -1038,574 -1625,702 -243,53 -496,70 -735,133 -277,74 -494,446 -459,727 26,208 45,416 62,623 23,304 28,610 68,912 73,547 164,1092 251,1637 122,760 302,1506 553,2233 200,578 421,1152 666,1711 171,390 393,758 606,1128 207,359 437,700 687,1028 225,299 468,587 724,865 239,259 489,511 750,747 259,234 531,456 815,661 384,277 781,537 1179,792 153,98 329,159 496,237 8,-8 16,-17 24,-25 85,-21 178,-24 253,-66 237,-127 476,-254 696,-409 447,-314 891,-636 1321,-973 256,-201 499,-424 724,-660 271,-284 517,-592 771,-891 72,-85 144,-172 211,-259 398,-508 732,-1059 1039,-1626 445,-821 781,-1690 1041,-2584 163,-563 298,-1134 415,-1708 99,-490 162,-987 226,-1484 54,-415 89,-831 128,-1248 17,-190 10,-381 38,-569 55,-380 -140,-788 -581,-837zm85 767c-18,136 -24,261 -27,381 -4,71 -6,141 -12,212l-18 205c-31,340 -63,688 -107,1026l-6 51c-61,462 -123,942 -215,1397 -126,621 -258,1167 -404,1668 -270,930 -598,1742 -1000,2485 -265,487 -508,889 -756,1239 -141,202 -285,386 -433,559 -74,87 -147,173 -220,261 -180,217 -352,420 -533,612 -215,226 -441,430 -670,610 -382,299 -796,602 -1300,956 -182,128 -384,237 -601,355l-26 13c-10,3 -22,5 -32,7 -96,-41 -184,-80 -252,-124 -472,-301 -828,-539 -1156,-775 -256,-184 -517,-396 -773,-626 -229,-207 -463,-440 -716,-715 -353,-382 -661,-762 -933,-1152 1,-1 0,-1 0,-1 -149,-214 -286,-430 -414,-651l-83 -143c-184,-318 -361,-621 -499,-936 -229,-522 -441,-1069 -651,-1674 -234,-676 -414,-1400 -532,-2148l-47 -288c-70,-439 -144,-892 -203,-1337 -23,-174 -33,-355 -44,-544 -6,-114 -13,-228 -22,-342 -20,-248 -41,-454 -64,-644 -2,-51 57,-157 99,-184 106,-28 225,-46 351,-64 114,-18 231,-35 354,-62 687,-151 1281,-468 1774,-761 318,-189 639,-384 947,-573 457,-280 931,-570 1399,-836 261,-149 540,-271 838,-398 117,-51 233,-100 350,-153 85,-39 170,-57 258,-57 129,0 279,39 456,119 818,370 1594,790 2305,1249 456,294 957,590 1578,929 497,271 1005,454 1509,544 98,16 192,24 274,30 39,3 78,5 117,10 59,7 82,28 98,50 38,50 54,136 42,220z"/>
     </g>
    </g>
    <path class="fil1" d="M14346 13609c-8,-10 -17,-19 -26,-29 14,16 27,34 44,50 -7,-7 -12,-14 -18,-21zm-618 -584c211,163 410,348 592,555 -180,-210 -379,-395 -592,-555zm-5035 540c186,-208 387,-396 604,-561 -219,162 -420,350 -604,561zm-39 44c-11,14 -22,27 -32,39 24,-27 48,-55 71,-83 -14,14 -27,29 -39,44z"/>
    <path class="fil1" d="M15326 15384c-205,-647 -524,-1229 -927,-1710 -3,-6 -9,-12 -14,-18 -2,-2 -3,-4 -5,-7 -6,-7 -12,-12 -16,-19 -17,-16 -30,-34 -44,-50 -182,-207 -381,-392 -592,-555 -23,-21 -49,-38 -73,-55 -49,-37 -99,-70 -151,-104 -2,-2 -5,-4 -9,-6 -48,-31 -96,-62 -147,-90 -2,-3 -6,-4 -9,-6 -53,-30 -107,-60 -160,-88 -26,-12 -51,-26 -75,-39 -16,-7 -28,-13 -43,-19 -14,-7 -28,-14 -44,-21 -76,-37 -154,-69 -234,-101 -33,-13 -66,-25 -101,-37 -3,-2 -7,-3 -10,-4 -10,-4 -20,-7 -31,-11 -24,-9 -47,-17 -73,-25 -2,0 -4,-1 -7,-2 -42,-13 -86,-26 -126,-38 -5,-2 -9,-3 -13,-4 -22,-7 -42,-12 -64,-18 1,-1 3,-4 5,-6l3 -3c10,-8 16,-14 22,-19 432,-315 721,-738 891,-1242 205,-606 171,-1192 -171,-1747 -417,-675 -1280,-1028 -2048,-832 -873,221 -1471,968 -1464,1857 3,621 240,1161 647,1627 114,130 248,241 376,360 2,4 6,6 8,8 -91,28 -190,55 -287,90 -333,118 -640,274 -921,467 -22,14 -44,29 -65,46 -19,14 -38,27 -57,41 -217,165 -418,353 -604,561 -23,28 -47,56 -71,83 -3,3 -5,6 -7,8 -5,6 -11,12 -14,18 -19,23 -37,44 -53,66 -374,463 -670,1013 -867,1623l0 1c-66,202 -120,413 -162,627 225,299 469,586 724,865 239,259 489,510 750,746 260,235 531,456 815,661 384,277 781,537 1179,793 153,97 330,158 496,236 8,-8 16,-17 24,-25 85,-22 179,-25 254,-65 237,-128 476,-256 696,-410 447,-314 891,-635 1321,-973 257,-201 498,-424 724,-660 270,-284 516,-592 771,-891 73,-85 144,-171 212,-259 -42,-214 -96,-423 -159,-625zm-2875 912l0 2c-1,9 -3,16 -7,25 -2,9 -6,17 -10,27 -2,3 -7,9 -9,15l-10 16c-141,224 -280,450 -420,678l-423 682 -24 40c-10,19 -20,37 -34,61l-28 0c-24,-42 -40,-73 -58,-101 -282,-455 -563,-910 -843,-1360 -41,-64 -48,-111 -26,-196 33,-123 64,-246 96,-369 56,-217 111,-434 167,-651 166,-644 331,-1289 497,-1933 20,-78 17,-128 -19,-191 -1,-2 -2,-5 -4,-7 -88,-154 -171,-315 -251,-463 151,22 304,58 456,58 152,0 303,-36 452,-58 -79,149 -161,308 -248,460 -1,1 -1,2 -1,3 -5,8 -7,14 -11,21 -2,3 -4,7 -6,10 -4,9 -8,17 -10,24 -6,20 -8,39 -8,59l0 24c1,6 2,13 2,21 3,10 6,24 10,39 63,246 126,492 189,737 1,2 1,2 1,5 102,399 205,794 306,1191 25,94 49,189 73,282 32,124 63,246 95,369 32,123 64,246 96,369 2,8 3,15 4,21 3,7 4,16 5,23 3,24 5,45 1,67z"/>
    <path class="fil1" d="M18490 15856l4005 -993 -2433 1690 -3589 891c0,0 -2,0 -2,2 -299,349 -586,711 -902,1044 -110,115 -222,226 -340,334l-1 2 -1040 257 -293 73 -1141 284c13,-8 26,-18 41,-27 554,-389 1010,-723 1428,-1051 195,-151 384,-317 569,-500 57,-55 113,-111 167,-169 200,-213 388,-436 587,-673 79,-95 160,-192 240,-286 71,-83 142,-168 211,-256 89,-115 178,-232 266,-357 149,-211 296,-437 445,-687 127,-208 253,-432 386,-675 113,-210 222,-425 324,-646l470 -117 208 -52 502 -126 4402 -1092 -2568 1782 -2433 604c-23,45 -47,89 -70,132 -161,297 -328,590 -506,878l1064 -265 3 -1z"/>
    <path class="fil1" d="M4510 15856l-4005 -993 2433 1690 3589 891c2,2 3,3 4,4 298,349 585,711 900,1042 110,115 222,226 340,334l1 2 1040 257 293 73 1142 284c-14,-8 -27,-18 -42,-27 -554,-389 -1010,-723 -1428,-1051 -195,-151 -384,-317 -569,-500 -57,-55 -113,-111 -167,-169 -200,-213 -388,-436 -587,-673 -79,-95 -160,-192 -240,-286 -71,-83 -141,-168 -210,-256 -90,-115 -179,-232 -267,-357 -149,-211 -296,-437 -445,-687 -127,-208 -253,-432 -386,-675 -113,-210 -222,-425 -324,-646l-470 -117 -208 -52 -502 -126 -4402 -1093 2568 1782 2433 604c23,45 48,89 71,132 161,297 327,590 506,878l-1065 -265 -3 0z"/>
   </g>
   <g>
   </g>
   <g>
   </g>
   <g>
   </g>
   <g>
   </g>
   <g>
   </g>
   <g>
   </g>
  </g>
 </g>
</svg>
