<?xml version="1.0" encoding="utf-8"?>
<!-- Generator: Adobe Illustrator 27.0.0, SVG Export Plug-In . SVG Version: 6.00 Build 0)  -->
<svg version="1.1" id="Layer_1" xmlns="http://www.w3.org/2000/svg" xmlns:xlink="http://www.w3.org/1999/xlink" x="0px" y="0px"
	 viewBox="0 0 200 200" style="enable-background:new 0 0 200 200;" xml:space="preserve">
<style type="text/css">
	.st0{fill:#FFFFFF;}
</style>
<g>
	<path class="st0" d="M120.86,24.59c0,7.26-1.74,14.49-5.18,21.04c-1.11,2.14-2.41,4.21-3.89,6.18l-7.6,10.13l-0.01,0.01L100,67.52
		L83.96,46.13l16.05-21.4l15.75-21.01C119.17,10.29,120.86,17.46,120.86,24.59z"/>
	<g>
		<path class="st0" d="M165.61,134.01c0,37.86-32.24,68.35-70.72,65.41c-32.33-2.45-58.29-28.76-60.36-61.12
			c-1.01-15.78,3.58-30.46,11.98-42.24l0.09-0.11l1.63-2.18l0.19-0.23l29.32-39.09l3.11-4.15l3.12-4.17l16.05-21.4l15.75-21.01
			c3.41,6.58,5.09,13.74,5.09,20.87c0,7.26-1.74,14.49-5.18,21.04c-1.11,2.14-2.41,4.21-3.89,6.18l-7.6,10.13l-0.01,0.01L100,67.52
			l-0.67,0.9l-2.45,3.27l-3.11,4.17l-24.92,33.23l-0.14,0.2l-0.04,0.04c-0.43,0.53-0.83,1.07-1.21,1.63
			c-4.85,6.79-7.6,15.15-7.36,24.17c0.54,20.4,16.86,37.41,37.25,38.75c23.21,1.51,42.6-16.95,42.6-39.85
			c0-8.03-2.38-15.51-6.49-21.77c-0.26-0.4-0.53-0.8-0.8-1.18l-0.16-0.21c-0.36-0.51-0.73-1.01-1.14-1.51l-24.21-32.3l-0.9-1.18
			l1.75-2.34l3.85-5.14l0.33-0.44l7.6-10.13c0.86-1.13,1.65-2.3,2.41-3.5l29.75,39.68l0.04,0.04l1.3,1.74l0.4,0.54
			c0.27,0.4,0.54,0.78,0.81,1.18C161.5,107.93,165.61,120.5,165.61,134.01z"/>
	</g>
	<path class="st0" d="M93.78,16.41l-1.75,2.33L78.64,36.59c-1.88-4.75-2.82-9.8-2.82-14.87c0-6.41,1.51-12.84,4.58-18.75l1.36-2.6
		L93.78,16.41z"/>
</g>
<g>
	<path class="st0" d="M102.37,106.27c0.8,0.1,1.59,0.19,2.39,0.31c4.27,0.65,8.23,2.14,11.88,4.44c1.92,1.21,3.69,2.62,5.3,4.23
		c0.09,0.09,0.18,0.19,0.35,0.37c-0.72-0.11-1.33-0.2-1.94-0.29c-3.06-0.44-6.13-0.58-9.22-0.4c-6.62,0.39-12.77,2.31-18.4,5.77
		c-6.75,4.15-11.76,9.85-14.73,17.24c-1.5,3.72-2.01,7.61-1.41,11.59c0.93,6.24,4.22,10.88,9.69,13.96
		c3.79,2.14,7.89,3.08,12.25,2.74c2.16-0.17,4.24-0.67,6.06-1.92c1.03-0.7,1.89-1.56,2.13-2.85c0.33-1.81-0.24-3.29-1.78-4.32
		c-1.5-1.01-3.13-1.17-4.83-0.54c-0.59,0.22-1.03,0.62-1.31,1.19c-0.38,0.77-0.1,1.51,0.68,1.86c0.11,0.05,0.22,0.09,0.34,0.13
		c-1.2,0.29-2.29-0.72-2.15-1.95c0.08-0.71,0.43-1.29,0.94-1.77c1.09-1.03,2.42-1.53,3.88-1.67c2.61-0.26,5.04,0.24,7.19,1.82
		c0.97,0.71,1.75,1.6,2.19,2.72c0.8,2.02,0.31,3.78-1.14,5.32c-1.16,1.23-2.62,1.97-4.17,2.57c-2.99,1.16-6.1,1.54-9.28,1.3
		c-8.06-0.61-14.73-4.09-20.17-9.98c-4.01-4.34-6.55-9.46-7.57-15.27c-1.49-8.49,0.19-16.34,5.13-23.42
		c4.01-5.75,9.42-9.67,16.1-11.82c2.2-0.71,4.46-1.15,6.77-1.31c0.12-0.01,0.23-0.04,0.35-0.07
		C99.36,106.27,100.87,106.27,102.37,106.27z"/>
	<path class="st0" d="M131.04,137.32c-0.94-1.63-2.52-2.26-4.11-2.82c-2.54-0.9-5.19-1.31-7.87-1.52c-1.88-0.14-3.78-0.27-5.66-0.22
		c-4.56,0.12-9.02,0.86-13.17,2.86c-4.47,2.15-8.22,5.17-11,9.32c-1.31,1.96-2.26,4.07-2.56,6.44c-0.51,4.02,0.81,7.27,4.07,9.7
		c1.83,1.36,3.86,2.24,6.17,2.4c1.79,0.12,3.47-0.25,4.98-1.23c0.9-0.59,1.49-1.38,1.45-2.52c-0.06-1.52-1.84-2.54-3.19-1.82
		c-0.47,0.25-0.57,0.51-0.46,1.14c-0.35,0-0.54-0.19-0.53-0.56c0.01-0.4,0.17-0.75,0.5-0.96c1.39-0.89,2.85-0.89,4.29-0.2
		c1.35,0.64,2.08,1.75,2.03,3.28c-0.03,1.05-0.55,1.88-1.29,2.59c-1.37,1.32-3.05,1.99-4.89,2.24c-4.11,0.56-8.08,0.01-11.71-2.04
		c-4.86-2.74-8.15-6.77-9.39-12.29c-0.49-2.17-0.42-4.4-0.1-6.6c0.8-5.4,3.29-9.94,7.08-13.81c3.09-3.15,6.43-5.99,10.26-8.22
		c4.33-2.53,8.99-4.12,13.93-4.95c2.57-0.43,5.16-0.71,7.76-0.55c1.38,0.09,2.78,0.26,4.13,0.58c2.09,0.5,3.72,1.76,4.84,3.61
		c2.96,4.88,4.46,10.17,4.51,15.88c0,0.05,0,0.11-0.01,0.16C131.09,137.23,131.08,137.25,131.04,137.32z"/>
	<path class="st0" d="M123.95,157.05c0.17-1.33,0.1-2.55-0.36-3.74c-0.67-1.73-1.89-3-3.38-4.04c-2.09-1.46-4.43-2.26-6.93-2.63
		c-3.61-0.53-7.19-0.34-10.7,0.71c-2.32,0.69-4.48,1.72-6.26,3.41c-1.51,1.44-2.44,3.17-2.33,5.31c0.15,2.64,1.52,4.57,4.26,5.01
		c0.8,0.13,1.6,0.06,2.38-0.21c1.2-0.43,1.58-1.64,0.71-2.57c1.49,0.27,2.02,1.63,1,2.72c-0.41,0.44-0.98,0.82-1.54,1.04
		c-3.65,1.41-8.05,0.37-10.72-2.5c-1.25-1.34-1.86-2.96-1.94-4.77c-0.12-2.87,0.86-5.42,2.36-7.8c1.83-2.87,4.27-5.09,7.22-6.78
		c4.18-2.4,8.68-3.84,13.46-4.43c4.84-0.6,9.57-0.11,14.16,1.55c1.23,0.45,2.39,1.03,3.39,1.89c1.47,1.27,2.08,2.79,1.63,4.76
		c-1.09,4.71-3.11,8.97-6.13,12.74C124.16,156.82,124.08,156.9,123.95,157.05z"/>
</g>
<g>
</g>
<g>
</g>
<g>
</g>
<g>
</g>
<g>
</g>
<g>
</g>
</svg>
