<?xml version="1.0" encoding="UTF-8"?>
<!DOCTYPE svg PUBLIC "-//W3C//DTD SVG 1.1//EN" "http://www.w3.org/Graphics/SVG/1.1/DTD/svg11.dtd">
<!-- Creator: CorelDRAW X7 -->
<svg xmlns="http://www.w3.org/2000/svg" xml:space="preserve" width="230mm" height="230mm" version="1.1" style="shape-rendering:geometricPrecision; text-rendering:geometricPrecision; image-rendering:optimizeQuality; fill-rule:evenodd; clip-rule:evenodd"
viewBox="0 0 23000 23000"
 xmlns:xlink="http://www.w3.org/1999/xlink">
 <defs>
  <style type="text/css">
   <![CDATA[
    .fil0 {fill:none}
    .fil1 {fill:#B9BDC9}
   ]]>
  </style>
 </defs>
 <g id="Layer_x0020_1">
  <metadata id="CorelCorpID_0Corel-Layer"/>
  <rect class="fil0" width="23000" height="23000"/>
  <rect class="fil0" width="23000" height="23000"/>
  <g id="_2079018300320">
  </g>
  <g id="_2079018301280">
  </g>
  <g id="_2079018300480">
  </g>
  <g id="_2079018300192">
  </g>
  <g id="_2079018301376">
  </g>
  <g id="_2079018298848">
  </g>
  <g id="_2079018327552">
   <g>
    <path class="fil1" d="M18648 9251c0,109 -2,217 -8,326 -989,-2423 -3176,-4109 -5720,-4109 -132,0 -263,5 -394,13 87,-171 137,-365 137,-571 0,-705 -575,-1278 -1278,-1278 -708,0 -1278,575 -1278,1278 0,427 209,805 530,1036 -1024,446 -1916,1186 -2597,2124 -54,71 -105,144 -155,217 6,-2473 365,-4344 640,-5415 63,-27 125,-57 190,-84 876,-392 1844,-607 2864,-607 3906,1 7069,3166 7069,7070z"/>
    <path class="fil1" d="M12513 12960c-2129,1254 -3922,1900 -4986,2211 -54,-40 -111,-79 -169,-123 -784,-551 -1464,-1275 -1983,-2153 -1990,-3359 -881,-7694 2475,-9686 96,-54 190,-109 286,-158 -1580,2087 -1915,4828 -617,7015 46,79 96,155 147,231 -569,131 -990,636 -990,1245 0,705 571,1278 1278,1278 595,0 1099,-411 1237,-966 886,612 1943,976 3055,1080 87,12 177,21 267,26z"/>
    <path class="fil1" d="M18683 10023c-8,68 -13,137 -21,207 -100,955 -400,1899 -915,2783 -1961,3378 -6285,4523 -9660,2565 -96,-54 -188,-112 -281,-171 2594,359 5152,-686 6427,-2883 104,-179 198,-365 283,-552 231,242 557,394 919,394 707,0 1278,-574 1278,-1281 0,-705 -571,-1278 -1278,-1278 -152,0 -300,27 -435,79 41,-974 -158,-1964 -569,-2888 -32,-85 -70,-166 -111,-245 2138,1244 3575,2495 4363,3270z"/>
    <g>
     <path class="fil1" d="M12390 4910c0,225 -73,438 -204,604 -182,244 -473,402 -803,402 -152,0 -299,-33 -426,-98 -343,-158 -580,-506 -580,-909 0,-555 451,-1006 1006,-1006 556,1 1007,452 1007,1007z"/>
    </g>
    <g>
     <path class="fil1" d="M16442 11084c0,555 -451,1009 -1006,1009 -329,0 -621,-161 -805,-406 -129,-168 -202,-378 -202,-603 0,-388 223,-729 550,-895 136,-73 290,-112 457,-112 555,0 1006,452 1006,1007z"/>
    </g>
    <g>
     <path class="fil1" d="M8960 11543c0,47 -2,93 -11,137 -65,492 -486,870 -995,870 -555,0 -1007,-452 -1007,-1007 0,-516 392,-943 892,-997 38,-6 76,-8 114,-8 556,-1 1007,450 1007,1005z"/>
    </g>
   </g>
   <path class="fil1" d="M11533 20819c0,0 22,-3316 3592,-3988 2474,-465 4442,-2559 4442,-2559 0,0 -1048,2840 -3628,3826 0,0 6408,-2161 6406,-6525 -1,-1 2154,6582 -10812,9246z"/>
   <path class="fil1" d="M11467 20819c0,0 -22,-3316 -3592,-3988 -2474,-465 -4442,-2559 -4442,-2559 0,0 1048,2840 3628,3826 0,0 -6408,-2161 -6406,-6525 1,-1 -2154,6582 10812,9246z"/>
   <g>
   </g>
   <g>
   </g>
   <g>
   </g>
   <g>
   </g>
   <g>
   </g>
   <g>
   </g>
  </g>
 </g>
</svg>
