<?xml version="1.0" encoding="UTF-8"?>
<!DOCTYPE svg PUBLIC "-//W3C//DTD SVG 1.1//EN" "http://www.w3.org/Graphics/SVG/1.1/DTD/svg11.dtd">
<!-- Creator: CorelDRAW X7 -->
<svg xmlns="http://www.w3.org/2000/svg" xml:space="preserve" width="230mm" height="230mm" version="1.1" style="shape-rendering:geometricPrecision; text-rendering:geometricPrecision; image-rendering:optimizeQuality; fill-rule:evenodd; clip-rule:evenodd"
viewBox="0 0 23000 23000"
 xmlns:xlink="http://www.w3.org/1999/xlink"
 enable-background="new 0 0 334 84"
 xmlns:dc="http://purl.org/dc/elements/1.1/"
 xmlns:cc="http://creativecommons.org/ns#"
 xmlns:rdf="http://www.w3.org/1999/02/22-rdf-syntax-ns#"
 xmlns:svg="http://www.w3.org/2000/svg"
 xmlns:sodipodi="http://sodipodi.sourceforge.net/DTD/sodipodi-0.dtd"
 xmlns:inkscape="http://www.inkscape.org/namespaces/inkscape"
 inkscape:version="0.92.3 (2405546, 2018-03-11)"
 sodipodi:docname="aeromexico.svg">
 <defs>
  <style type="text/css">
   <![CDATA[
    .str0 {stroke:#332C2B;stroke-width:7.62}
    .fil0 {fill:none}
    .fil1 {fill:#B9BDC9}
   ]]>
  </style>
 </defs>
 <g id="Layer_x0020_1">
  <metadata id="CorelCorpID_0Corel-Layer"/>
  <rect class="fil0 str0" width="23000" height="23000"/>
  <rect class="fil0" width="23000" height="23000"/>
  <sodipodi:namedview pagecolor="#ffffff" bordercolor="#666666" borderopacity="1" objecttolerance="10" gridtolerance="10" guidetolerance="10" inkscape:pageopacity="0" inkscape:pageshadow="2" inkscape:window-width="1280" inkscape:window-height="1004" id="namedview198" showgrid="false" fit-margin-top="0" fit-margin-left="0" fit-margin-right="0" fit-margin-bottom="0" inkscape:zoom="8.7486948" inkscape:cx="247.11667" inkscape:cy="40.949792" inkscape:window-x="-8" inkscape:window-y="-8" inkscape:window-maximized="1" inkscape:current-layer="g3"/>
  <sodipodi:namedview id="base" pagecolor="#00ffff" bordercolor="#666666" borderopacity="1.0" inkscape:pageopacity="0" inkscape:pageshadow="2" inkscape:zoom="1.4" inkscape:cx="451.73565" inkscape:cy="-10.201303" inkscape:document-units="px" inkscape:current-layer="layer1" showgrid="false" fit-margin-left="0.3" fit-margin-top="0.3" fit-margin-right="0.3" fit-margin-bottom="0.3" units="px" inkscape:window-width="1920" inkscape:window-height="1001" inkscape:window-x="-9" inkscape:window-y="-9" inkscape:window-maximized="1"/>
  <g id="_2764450865680">
   <g>
    <path class="fil1" d="M12817 12013c2,-730 598,-1323 1325,-1319 736,5 1327,597 1325,1328 -2,731 -599,1325 -1329,1323 -731,-2 -1325,-599 -1321,-1332zm1323 -902c-104,0 -120,5 -113,74 10,98 -21,157 -119,178 -7,1 -13,4 -18,8 -267,139 -290,483 -41,651 59,39 126,65 190,96 62,31 129,53 184,92 94,66 77,186 -30,224 -45,16 -97,27 -142,19 -89,-16 -176,-45 -261,-74 -41,-14 -64,-11 -75,32 -14,50 -27,99 -43,148 -13,42 4,71 42,85 64,23 130,47 196,62 99,20 99,17 100,117 2,102 8,110 111,110 16,0 31,-1 47,0 60,4 87,-24 84,-83 -1,-18 2,-36 0,-53 -9,-66 15,-98 82,-120 210,-69 325,-282 266,-486 -40,-142 -138,-230 -269,-288 -83,-37 -168,-72 -248,-114 -52,-26 -90,-71 -70,-135 18,-60 69,-78 125,-82 100,-8 196,6 285,50 49,25 75,13 88,-40 10,-43 24,-85 36,-127 13,-42 0,-72 -41,-86 -55,-18 -109,-41 -166,-48 -62,-7 -81,-33 -82,-94 0,-116 -3,-116 -118,-116z"/>
    <path class="fil1" d="M11940 9749c-148,0 -286,4 -423,-2 -39,-1 -96,-22 -110,-51 -16,-32 -8,-93 13,-127 290,-474 586,-947 880,-1418 61,-99 141,-99 202,0 296,473 592,947 885,1423 20,33 28,92 10,122 -17,30 -71,50 -110,52 -138,6 -276,2 -421,2 -1,29 -3,52 -3,76 0,341 1,682 -3,1023 0,34 -13,74 -35,101 -503,625 -509,1495 -11,2125 27,33 66,63 37,116 -29,52 -70,77 -130,77 -211,0 -423,1 -635,0 -95,-1 -144,-57 -144,-160 0,-798 0,-1595 0,-2393 0,-299 0,-597 0,-896 -2,-20 -2,-40 -2,-70z"/>
    <path class="fil1" d="M11552 11882c0,407 0,816 0,1223 0,116 -46,162 -161,163 -203,1 -405,1 -609,0 -100,0 -153,-53 -153,-152 0,-821 0,-1643 0,-2464 0,-101 51,-152 152,-153 203,-1 405,-1 609,-1 115,0 162,47 162,162 1,407 0,814 0,1222z"/>
    <path class="fil1" d="M10243 12270c0,276 0,552 0,828 0,125 -45,169 -168,169 -195,0 -392,0 -587,0 -119,0 -168,-49 -168,-164 0,-555 0,-1109 0,-1663 0,-119 47,-166 165,-167 198,-1 397,-1 595,0 114,0 162,48 163,162 1,278 0,557 0,835z"/>
   </g>
   <g>
    <g>
     <path class="fil1" d="M16789 11087c-196,-2169 -1929,-3902 -4098,-4098 -134,-14 -272,-19 -412,-19 -141,0 -279,5 -413,19 -940,85 -1797,458 -2483,1031 -212,175 -408,371 -584,584 -573,686 -946,1543 -1031,2483 -14,134 -19,272 -19,412 0,141 5,279 19,413 196,2169 1929,3902 4098,4098 134,14 272,19 413,19 140,0 278,-5 412,-19 940,-85 1797,-458 2483,-1031 212,-176 408,-371 584,-584 573,-686 946,-1543 1031,-2483 14,-134 19,-272 19,-413 0,-140 -5,-278 -19,-412zm-832 825c-77,711 -361,1364 -785,1895 -174,216 -369,411 -584,585 -532,424 -1185,708 -1895,785 -135,16 -273,25 -413,25 -141,0 -279,-8 -413,-25 -1711,-190 -3075,-1554 -3265,-3265 -16,-134 -25,-272 -25,-413 0,-140 8,-278 25,-412 77,-711 361,-1364 785,-1896 174,-215 370,-410 585,-584 531,-424 1184,-708 1895,-785 134,-16 272,-26 413,-26 140,0 278,8 413,26 1711,189 3075,1553 3264,3265 16,134 26,272 26,412 0,141 -10,279 -26,413z"/>
    </g>
    <g>
     <path class="fil1" d="M21567 11499c0,-138 -2,-276 -8,-412l-1350 0c-209,-4051 -3466,-7308 -7516,-7517l0 -2909c-138,-6 -276,-8 -413,-8 -138,0 -276,2 -413,8 -2681,99 -5116,1176 -6958,2885 -201,190 -394,383 -584,584 -1708,1840 -2785,4276 -2884,6958 -6,138 -8,276 -8,413 0,136 2,276 8,412 212,5654 4772,10215 10426,10426 138,6 276,8 413,8 138,0 276,-2 413,-8 2680,-99 5116,-1176 6957,-2884 201,-190 394,-383 584,-584l-1101 -1102c1424,-1559 2328,-3604 2427,-5854 4,-140 7,-278 7,-416zm-8876 -7103c3596,207 6484,3095 6690,6689l-1565 0c-201,-2735 -2392,-4923 -5125,-5124l0 -1565zm-412 2376c140,0 278,6 412,19 2279,199 4098,2017 4296,4296 13,134 19,272 19,412 0,141 -6,279 -19,413 -85,995 -480,1901 -1088,2623 -176,212 -372,409 -584,585 -723,608 -1629,1002 -2624,1088 -134,13 -272,19 -412,19 -141,0 -279,-6 -413,-19 -2278,-198 -4098,-2018 -4296,-4296 -13,-134 -19,-272 -19,-413 0,-140 6,-278 19,-412 86,-995 479,-1903 1088,-2624 176,-211 372,-408 585,-584 722,-608 1628,-1003 2623,-1088 134,-15 272,-19 413,-19zm412 14740c-138,6 -276,9 -412,9 -138,0 -276,-3 -413,-9 -5199,-211 -9388,-4399 -9599,-9599 -6,-138 -8,-276 -8,-412 0,-137 2,-276 8,-413 99,-2452 1085,-4682 2642,-6374 188,-201 383,-396 585,-584 1691,-1557 3920,-2542 6373,-2642l0 4474c-1220,89 -2333,576 -3210,1331 -209,179 -405,375 -584,584 -754,876 -1243,1989 -1331,3210 -11,138 -16,276 -16,412 0,137 6,276 16,413 202,2734 2389,4923 5125,5125 138,11 276,16 413,16 138,0 276,-6 413,-16 1220,-89 2333,-576 3209,-1331l1102 1102 586 586 370 369 1105 1106c-1692,1558 -3921,2543 -6374,2643zm5853 -4332l-369 -369 -1690 -1689c755,-876 1243,-1990 1331,-3210l2912 0c-96,2023 -905,3861 -2184,5268z"/>
    </g>
   </g>
   <g>
   </g>
   <g>
   </g>
   <g>
   </g>
   <g>
   </g>
   <g>
   </g>
   <g>
   </g>
  </g>
 </g>
</svg>
